<svg width="468" height="468" viewBox="0 0 468 468" fill="none" xmlns="http://www.w3.org/2000/svg">
  <path d="M399.463 68.537C355.266 24.34 296.503 0 234 0C106.462 0 0 106.462 0 234C0 361.538 106.462 468 234 468C361.538 468 468 361.538 468 234C468 171.496 443.66 112.734 399.463 68.537ZM338.133 308.434L310.759 252.04L335.891 239.841L349.372 267.615L350.024 264.919C352.48 254.768 353.726 244.365 353.726 234C353.726 162.729 296.574 104.745 226.325 104.745C156.076 104.745 98.924 162.729 98.924 234C98.924 304.936 155.534 362.709 225.329 363.251V391.187C140.136 390.639 70.989 320.337 70.989 234C70.989 147.325 140.673 76.809 226.326 76.809C311.979 76.809 381.662 147.325 381.662 234C381.662 245.46 380.408 256.974 377.935 268.223L377.446 270.449L400.666 256.827L414.802 280.922L357.767 314.382C349.25 321.5 338.75 313.75 338.133 308.434Z" fill="#354070"/>
  </svg>
  